ISO-10303-21;
HEADER;
FILE_DESCRIPTION(('STEP AP214'),'1');
FILE_NAME('cctmp_B7A15ABA-479E-4F99-B007-CD506197796A_2020_08_20_09_14_49_0408..stp','2020-08-20T07:14:49',('igus GmbH'),('CADClick - www.CADClick.com'),'Spatial InterOp 3D',' ','unknown authorization');
FILE_SCHEMA(('AUTOMOTIVE_DESIGN'));
ENDSEC;
DATA;
#1=MECHANICAL_DESIGN_GEOMETRIC_PRESENTATION_REPRESENTATION(' ',(#10,#11,#12,#13,#14),#6);
#2=PRODUCT_DEFINITION_CONTEXT('',#15,'design');
#3=APPLICATION_PROTOCOL_DEFINITION('INTERNATIONAL STANDARD','automotive_design',1994,#15);
#4=PRODUCT_CATEGORY_RELATIONSHIP('NONE','NONE',#16,#17);
#5=SHAPE_DEFINITION_REPRESENTATION(#18,#19);
#6= (GEOMETRIC_REPRESENTATION_CONTEXT(3)GLOBAL_UNCERTAINTY_ASSIGNED_CONTEXT((#22))GLOBAL_UNIT_ASSIGNED_CONTEXT((#24,#25,#26))REPRESENTATION_CONTEXT('NONE','WORKSPACE'));
#10=STYLED_ITEM('',(#28),#29);
#11=STYLED_ITEM('',(#30),#31);
#12=STYLED_ITEM('',(#32),#33);
#13=STYLED_ITEM('',(#34),#35);
#14=STYLED_ITEM('',(#36),#37);
#15=APPLICATION_CONTEXT(' ');
#16=PRODUCT_CATEGORY('part','NONE');
#17=PRODUCT_RELATED_PRODUCT_CATEGORY('detail',' ',(#38));
#18=PRODUCT_DEFINITION_SHAPE('NONE','NONE',#39);
#19=ADVANCED_BREP_SHAPE_REPRESENTATION('2020_08_20_09_14_49_0392',(#37,#40),#6);
#22=UNCERTAINTY_MEASURE_WITH_UNIT(LENGTH_MEASURE(1.0E-006),#24,'','');
#24= (CONVERSION_BASED_UNIT('MILLIMETRE',#43)LENGTH_UNIT()NAMED_UNIT(#46));
#25= (NAMED_UNIT(#48)PLANE_ANGLE_UNIT()SI_UNIT($,.RADIAN.));
#26= (NAMED_UNIT(#48)SOLID_ANGLE_UNIT()SI_UNIT($,.STERADIAN.));
#28=PRESENTATION_STYLE_ASSIGNMENT((#54));
#29=ADVANCED_FACE('',(#55),#56,.T.);
#30=PRESENTATION_STYLE_ASSIGNMENT((#57));
#31=ADVANCED_FACE('',(#58),#59,.T.);
#32=PRESENTATION_STYLE_ASSIGNMENT((#60));
#33=ADVANCED_FACE('',(#61),#62,.T.);
#34=PRESENTATION_STYLE_ASSIGNMENT((#63));
#35=ADVANCED_FACE('',(#64),#65,.T.);
#36=PRESENTATION_STYLE_ASSIGNMENT((#66));
#37=MANIFOLD_SOLID_BREP('2020_08_20_09_14_49_0392',#67);
#38=PRODUCT('2020_08_20_09_14_49_0392','','PART--DESC',(#68));
#39=PRODUCT_DEFINITION('','NONE',#69,#2);
#40=AXIS2_PLACEMENT_3D('',#70,#71,#72);
#43=LENGTH_MEASURE_WITH_UNIT(LENGTH_MEASURE(1.0),#73);
#46=DIMENSIONAL_EXPONENTS(1.0,0.0,0.0,0.0,0.0,0.0,0.0);
#48=DIMENSIONAL_EXPONENTS(0.0,0.0,0.0,0.0,0.0,0.0,0.0);
#54=SURFACE_STYLE_USAGE(.BOTH.,#74);
#55=FACE_OUTER_BOUND('',#75,.T.);
#56=CYLINDRICAL_SURFACE('',#76,6.0);
#57=SURFACE_STYLE_USAGE(.BOTH.,#77);
#58=FACE_OUTER_BOUND('',#78,.T.);
#59=CYLINDRICAL_SURFACE('',#79,6.0);
#60=SURFACE_STYLE_USAGE(.BOTH.,#80);
#61=FACE_OUTER_BOUND('',#81,.T.);
#62=PLANE('',#82);
#63=SURFACE_STYLE_USAGE(.BOTH.,#83);
#64=FACE_OUTER_BOUND('',#84,.T.);
#65=PLANE('',#85);
#66=SURFACE_STYLE_USAGE(.BOTH.,#86);
#67=CLOSED_SHELL('',(#29,#31,#33,#35));
#68=PRODUCT_CONTEXT('',#15,'mechanical');
#69=PRODUCT_DEFINITION_FORMATION_WITH_SPECIFIED_SOURCE(' ','NONE',#38,.NOT_KNOWN.);
#70=CARTESIAN_POINT('',(0.0,0.0,0.0));
#71=DIRECTION('',(0.0,0.0,1.0));
#72=DIRECTION('',(1.0,0.0,0.0));
#73= (NAMED_UNIT(#46)LENGTH_UNIT()SI_UNIT(.MILLI.,.METRE.));
#74=SURFACE_SIDE_STYLE('',(#88));
#75=EDGE_LOOP('',(#89,#90,#91,#92));
#76=AXIS2_PLACEMENT_3D('',#93,#94,#95);
#77=SURFACE_SIDE_STYLE('',(#96));
#78=EDGE_LOOP('',(#97,#98,#99,#100));
#79=AXIS2_PLACEMENT_3D('',#101,#102,#103);
#80=SURFACE_SIDE_STYLE('',(#104));
#81=EDGE_LOOP('',(#105,#106));
#82=AXIS2_PLACEMENT_3D('',#107,#108,#109);
#83=SURFACE_SIDE_STYLE('',(#110));
#84=EDGE_LOOP('',(#111,#112));
#85=AXIS2_PLACEMENT_3D('',#113,#114,#115);
#86=SURFACE_SIDE_STYLE('',(#116));
#88=SURFACE_STYLE_FILL_AREA(#117);
#89=ORIENTED_EDGE('',*,*,#118,.F.);
#90=ORIENTED_EDGE('',*,*,#119,.F.);
#91=ORIENTED_EDGE('',*,*,#120,.F.);
#92=ORIENTED_EDGE('',*,*,#121,.F.);
#93=CARTESIAN_POINT('',(0.0,-100.0,0.0));
#94=DIRECTION('',(0.0,-1.0,0.0));
#95=DIRECTION('',(1.0,0.0,0.0));
#96=SURFACE_STYLE_FILL_AREA(#122);
#97=ORIENTED_EDGE('',*,*,#118,.T.);
#98=ORIENTED_EDGE('',*,*,#123,.F.);
#99=ORIENTED_EDGE('',*,*,#120,.T.);
#100=ORIENTED_EDGE('',*,*,#124,.F.);
#101=CARTESIAN_POINT('',(0.0,-100.0,0.0));
#102=DIRECTION('',(0.0,-1.0,0.0));
#103=DIRECTION('',(1.0,0.0,0.0));
#104=SURFACE_STYLE_FILL_AREA(#125);
#105=ORIENTED_EDGE('',*,*,#124,.T.);
#106=ORIENTED_EDGE('',*,*,#119,.T.);
#107=CARTESIAN_POINT('',(0.0,0.0,0.0));
#108=DIRECTION('',(0.0,1.0,0.0));
#109=DIRECTION('',(-1.0,0.0,0.0));
#110=SURFACE_STYLE_FILL_AREA(#126);
#111=ORIENTED_EDGE('',*,*,#121,.T.);
#112=ORIENTED_EDGE('',*,*,#123,.T.);
#113=CARTESIAN_POINT('',(0.0,-200.0,0.0));
#114=DIRECTION('',(0.0,-1.0,0.0));
#115=DIRECTION('',(1.0,0.0,0.0));
#116=SURFACE_STYLE_FILL_AREA(#127);
#117=FILL_AREA_STYLE('',(#128));
#118=EDGE_CURVE('',#129,#130,#131,.T.);
#119=EDGE_CURVE('',#132,#129,#133,.T.);
#120=EDGE_CURVE('',#134,#132,#135,.T.);
#121=EDGE_CURVE('',#130,#134,#136,.T.);
#122=FILL_AREA_STYLE('',(#137));
#123=EDGE_CURVE('',#134,#130,#138,.T.);
#124=EDGE_CURVE('',#129,#132,#139,.T.);
#125=FILL_AREA_STYLE('',(#140));
#126=FILL_AREA_STYLE('',(#141));
#127=FILL_AREA_STYLE('',(#142));
#128=FILL_AREA_STYLE_COLOUR('',#143);
#129=VERTEX_POINT('',#144);
#130=VERTEX_POINT('',#145);
#131=LINE('',#146,#147);
#132=VERTEX_POINT('',#148);
#133=CIRCLE('',#149,6.0);
#134=VERTEX_POINT('',#150);
#135=LINE('',#151,#152);
#136=CIRCLE('',#153,6.0);
#137=FILL_AREA_STYLE_COLOUR('',#154);
#138=CIRCLE('',#155,6.0);
#139=CIRCLE('',#156,6.0);
#140=FILL_AREA_STYLE_COLOUR('',#157);
#141=FILL_AREA_STYLE_COLOUR('',#158);
#142=FILL_AREA_STYLE_COLOUR('',#159);
#143=COLOUR_RGB('',0.501960813999176,0.501960813999176,0.501960813999176);
#144=CARTESIAN_POINT('',(6.0,0.0,0.0));
#145=CARTESIAN_POINT('',(6.0,-200.0,0.0));
#146=CARTESIAN_POINT('',(6.0,-100.0,-7.34788079488412E-016));
#147=VECTOR('',#160,1.0);
#148=CARTESIAN_POINT('',(-6.0,0.0,7.34788079488412E-016));
#149=AXIS2_PLACEMENT_3D('',#161,#162,#163);
#150=CARTESIAN_POINT('',(-6.0,-200.0,7.34788079488412E-016));
#151=CARTESIAN_POINT('',(-6.0,-100.0,7.34788079488412E-016));
#152=VECTOR('',#164,1.0);
#153=AXIS2_PLACEMENT_3D('',#165,#166,#167);
#154=COLOUR_RGB('',0.501960813999176,0.501960813999176,0.501960813999176);
#155=AXIS2_PLACEMENT_3D('',#168,#169,#170);
#156=AXIS2_PLACEMENT_3D('',#171,#172,#173);
#157=COLOUR_RGB('',0.501960813999176,0.501960813999176,0.501960813999176);
#158=COLOUR_RGB('',0.501960813999176,0.501960813999176,0.501960813999176);
#159=COLOUR_RGB('',0.501960813999176,0.501960813999176,0.501960813999176);
#160=DIRECTION('',(0.0,-1.0,0.0));
#161=CARTESIAN_POINT('',(0.0,0.0,0.0));
#162=DIRECTION('',(-0.0,1.0,0.0));
#163=DIRECTION('',(1.0,0.0,0.0));
#164=DIRECTION('',(-0.0,1.0,-0.0));
#165=CARTESIAN_POINT('',(0.0,-200.0,0.0));
#166=DIRECTION('',(0.0,-1.0,0.0));
#167=DIRECTION('',(1.0,0.0,0.0));
#168=CARTESIAN_POINT('',(0.0,-200.0,0.0));
#169=DIRECTION('',(0.0,-1.0,0.0));
#170=DIRECTION('',(1.0,0.0,0.0));
#171=CARTESIAN_POINT('',(0.0,0.0,0.0));
#172=DIRECTION('',(-0.0,1.0,0.0));
#173=DIRECTION('',(1.0,0.0,0.0));
ENDSEC;
END-ISO-10303-21;
